
[
	{
		"COUNTRY" : "West Indies",
		"COUNTRY_CODE" : "FWI"
	},
	{
		"COUNTRY" : "Albania",
		"COUNTRY_CODE" : "ALB"
	},
	{
		"COUNTRY" : "Algeria",
		"COUNTRY_CODE" : "DZA"
	},
	{
		"COUNTRY" : "Angola",
		"COUNTRY_CODE" : "AGO"
	},
	{
		"COUNTRY" : "Azerbaidjan",
		"COUNTRY_CODE" : "AZE"
	},
	{
		"COUNTRY" : "Argentina",
		"COUNTRY_CODE" : "ARG"
	},
	{
		"COUNTRY" : "Australia",
		"COUNTRY_CODE" : "AUS"
	},
	{
		"COUNTRY" : "Austria",
		"COUNTRY_CODE" : "AUT"
	},
	{
		"COUNTRY" : "Bahrain",
		"COUNTRY_CODE" : "BHR"
	},
	{
		"COUNTRY" : "Bangladesh",
		"COUNTRY_CODE" : "BGD"
	},
	{
		"COUNTRY" : "Armenia",
		"COUNTRY_CODE" : "ARM"
	},
	{
		"COUNTRY" : "Belgium",
		"COUNTRY_CODE" : "BEL"
	},
	{
		"COUNTRY" : "Bermuda",
		"COUNTRY_CODE" : "BMU"
	},
	{
		"COUNTRY" : "Bolivia",
		"COUNTRY_CODE" : "BOL"
	},
	{
		"COUNTRY" : "Bosnia & Herzegovina",
		"COUNTRY_CODE" : "BIH"
	},
	{
		"COUNTRY" : "Botswana",
		"COUNTRY_CODE" : "BWA"
	},
	{
		"COUNTRY" : "Brazil",
		"COUNTRY_CODE" : "BRA"
	},
	{
		"COUNTRY" : "Bulgaria",
		"COUNTRY_CODE" : "BGR"
	},
	{
		"COUNTRY" : "Burundi",
		"COUNTRY_CODE" : "BDI"
	},
	{
		"COUNTRY" : "Belarus",
		"COUNTRY_CODE" : "BLR"
	},
	{
		"COUNTRY" : "Cameroon",
		"COUNTRY_CODE" : "CMR"
	},
	{
		"COUNTRY" : "Canada",
		"COUNTRY_CODE" : "CAN"
	},
	{
		"COUNTRY" : "Central African Republic",
		"COUNTRY_CODE" : "CAF"
	},
	{
		"COUNTRY" : "Sri Lanka",
		"COUNTRY_CODE" : "LKA"
	},
	{
		"COUNTRY" : "Tchad",
		"COUNTRY_CODE" : "TCD"
	},
	{
		"COUNTRY" : "Chile",
		"COUNTRY_CODE" : "CHL"
	},
	{
		"COUNTRY" : "China",
		"COUNTRY_CODE" : "CHN"
	},
	{
		"COUNTRY" : "Taiwan, region of China",
		"COUNTRY_CODE" : "TWN"
	},
	{
		"COUNTRY" : "Colombia",
		"COUNTRY_CODE" : "COL"
	},
	{
		"COUNTRY" : "Congo",
		"COUNTRY_CODE" : "COG"
	},
	{
		"COUNTRY" : "Costa Rica",
		"COUNTRY_CODE" : "CRI"
	},
	{
		"COUNTRY" : "Croatia",
		"COUNTRY_CODE" : "HRV"
	},
	{
		"COUNTRY" : "Cuba",
		"COUNTRY_CODE" : "CUB"
	},
	{
		"COUNTRY" : "Cyprus",
		"COUNTRY_CODE" : "CYP"
	},
	{
		"COUNTRY" : "Czech Republic",
		"COUNTRY_CODE" : "CZE"
	},
	{
		"COUNTRY" : "Benin",
		"COUNTRY_CODE" : "BEN"
	},
	{
		"COUNTRY" : "Denmark",
		"COUNTRY_CODE" : "DNK"
	},
	{
		"COUNTRY" : "Dominican Republic",
		"COUNTRY_CODE" : "DOM"
	},
	{
		"COUNTRY" : "Ecuador",
		"COUNTRY_CODE" : "ECU"
	},
	{
		"COUNTRY" : "El Salvador",
		"COUNTRY_CODE" : "SLV"
	},
	{
		"COUNTRY" : "Ethiopia",
		"COUNTRY_CODE" : "ETH"
	},
	{
		"COUNTRY" : "Estonia",
		"COUNTRY_CODE" : "EST"
	},
	{
		"COUNTRY" : "Finland",
		"COUNTRY_CODE" : "FIN"
	},
	{
		"COUNTRY" : "France",
		"COUNTRY_CODE" : "FRA"
	},
	{
		"COUNTRY" : "Djibouti Republic",
		"COUNTRY_CODE" : "DJI"
	},
	{
		"COUNTRY" : "Gabon",
		"COUNTRY_CODE" : "GAB"
	},
	{
		"COUNTRY" : "Georgia",
		"COUNTRY_CODE" : "GEO"
	},
	{
		"COUNTRY" : "Gambia",
		"COUNTRY_CODE" : "GMB"
	},
	{
		"COUNTRY" : "Germany",
		"COUNTRY_CODE" : "DEU"
	},
	{
		"COUNTRY" : "Ghana",
		"COUNTRY_CODE" : "GHA"
	},
	{
		"COUNTRY" : "Greece",
		"COUNTRY_CODE" : "GRC"
	},
	{
		"COUNTRY" : "Guatemala",
		"COUNTRY_CODE" : "GTM"
	},
	{
		"COUNTRY" : "Guinea",
		"COUNTRY_CODE" : "GIN"
	},
	{
		"COUNTRY" : "Guyana & Suriname",
		"COUNTRY_CODE" : "GUY"
	},
	{
		"COUNTRY" : "Haiti",
		"COUNTRY_CODE" : "HTI"
	},
	{
		"COUNTRY" : "Honduras",
		"COUNTRY_CODE" : "HND"
	},
	{
		"COUNTRY" : "Hong Kong, region of China",
		"COUNTRY_CODE" : "HKG"
	},
	{
		"COUNTRY" : "Hungary",
		"COUNTRY_CODE" : "HUN"
	},
	{
		"COUNTRY" : "Iceland",
		"COUNTRY_CODE" : "ISL"
	},
	{
		"COUNTRY" : "India",
		"COUNTRY_CODE" : "IND"
	},
	{
		"COUNTRY" : "Indonesia",
		"COUNTRY_CODE" : "IDN"
	},
	{
		"COUNTRY" : "Iran Islamic Republic",
		"COUNTRY_CODE" : "IRN"
	},
	{
		"COUNTRY" : "Irak",
		"COUNTRY_CODE" : "IRQ"
	},
	{
		"COUNTRY" : "Ireland",
		"COUNTRY_CODE" : "IRL"
	},
	{
		"COUNTRY" : "Israel",
		"COUNTRY_CODE" : "ISR"
	},
	{
		"COUNTRY" : "Italy",
		"COUNTRY_CODE" : "ITA"
	},
	{
		"COUNTRY" : "Ivory Coast",
		"COUNTRY_CODE" : "CIV"
	},
	{
		"COUNTRY" : "Jamaica",
		"COUNTRY_CODE" : "JAM"
	},
	{
		"COUNTRY" : "Japan",
		"COUNTRY_CODE" : "JPN"
	},
	{
		"COUNTRY" : "Kazakhstan",
		"COUNTRY_CODE" : "KAZ"
	},
	{
		"COUNTRY" : "Jordan",
		"COUNTRY_CODE" : "JOR"
	},
	{
		"COUNTRY" : "Kenya",
		"COUNTRY_CODE" : "KEN"
	},
	{
		"COUNTRY" : "South Korea",
		"COUNTRY_CODE" : "KOR"
	},
	{
		"COUNTRY" : "Kuwait",
		"COUNTRY_CODE" : "KWT"
	},
	{
		"COUNTRY" : "Kirgizstan",
		"COUNTRY_CODE" : "KGZ"
	},
	{
		"COUNTRY" : "Lebanon",
		"COUNTRY_CODE" : "LBN"
	},
	{
		"COUNTRY" : "Latvia",
		"COUNTRY_CODE" : "LVA"
	},
	{
		"COUNTRY" : "Liberia",
		"COUNTRY_CODE" : "LBR"
	},
	{
		"COUNTRY" : "Lithuania",
		"COUNTRY_CODE" : "LTU"
	},
	{
		"COUNTRY" : "Luxemburg",
		"COUNTRY_CODE" : "LUX"
	},
	{
		"COUNTRY" : "Madagascar",
		"COUNTRY_CODE" : "MDG"
	},
	{
		"COUNTRY" : "Malawi",
		"COUNTRY_CODE" : "MWI"
	},
	{
		"COUNTRY" : "Malaysia",
		"COUNTRY_CODE" : "MYS"
	},
	{
		"COUNTRY" : "Mali",
		"COUNTRY_CODE" : "MLI"
	},
	{
		"COUNTRY" : "Malta",
		"COUNTRY_CODE" : "MLT"
	},
	{
		"COUNTRY" : "Mauritania",
		"COUNTRY_CODE" : "MRT"
	},
	{
		"COUNTRY" : "Mauritius",
		"COUNTRY_CODE" : "MUS"
	},
	{
		"COUNTRY" : "Mexico",
		"COUNTRY_CODE" : "MEX"
	},
	{
		"COUNTRY" : "Moldova",
		"COUNTRY_CODE" : "MDA"
	},
	{
		"COUNTRY" : "Montenegro",
		"COUNTRY_CODE" : "MNE"
	},
	{
		"COUNTRY" : "Morocco",
		"COUNTRY_CODE" : "MAR"
	},
	{
		"COUNTRY" : "Mozambique",
		"COUNTRY_CODE" : "MOZ"
	},
	{
		"COUNTRY" : "Oman",
		"COUNTRY_CODE" : "OMN"
	},
	{
		"COUNTRY" : "Namibia",
		"COUNTRY_CODE" : "NAM"
	},
	{
		"COUNTRY" : "Nepal",
		"COUNTRY_CODE" : "NPL"
	},
	{
		"COUNTRY" : "Netherlands",
		"COUNTRY_CODE" : "NLD"
	},
	{
		"COUNTRY" : "New Zealand",
		"COUNTRY_CODE" : "NZL"
	},
	{
		"COUNTRY" : "Nicaragua",
		"COUNTRY_CODE" : "NIC"
	},
	{
		"COUNTRY" : "Niger",
		"COUNTRY_CODE" : "NER"
	},
	{
		"COUNTRY" : "Nigeria",
		"COUNTRY_CODE" : "NGA"
	},
	{
		"COUNTRY" : "Norway",
		"COUNTRY_CODE" : "NOR"
	},
	{
		"COUNTRY" : "Pakistan",
		"COUNTRY_CODE" : "PAK"
	},
	{
		"COUNTRY" : "Panama",
		"COUNTRY_CODE" : "PAN"
	},
	{
		"COUNTRY" : "Paraguay",
		"COUNTRY_CODE" : "PRY"
	},
	{
		"COUNTRY" : "Peru",
		"COUNTRY_CODE" : "PER"
	},
	{
		"COUNTRY" : "Philippines",
		"COUNTRY_CODE" : "PHL"
	},
	{
		"COUNTRY" : "Poland",
		"COUNTRY_CODE" : "POL"
	},
	{
		"COUNTRY" : "Portugal",
		"COUNTRY_CODE" : "PRT"
	},
	{
		"COUNTRY" : "Puerto Rico",
		"COUNTRY_CODE" : "PRI"
	},
	{
		"COUNTRY" : "Qatar",
		"COUNTRY_CODE" : "QAT"
	},
	{
		"COUNTRY" : "Romania",
		"COUNTRY_CODE" : "ROU"
	},
	{
		"COUNTRY" : "Russia",
		"COUNTRY_CODE" : "RUS"
	},
	{
		"COUNTRY" : "Rwanda",
		"COUNTRY_CODE" : "RWA"
	},
	{
		"COUNTRY" : "Kingdom of Saudi Arabia",
		"COUNTRY_CODE" : "SAU"
	},
	{
		"COUNTRY" : "Senegal",
		"COUNTRY_CODE" : "SEN"
	},
	{
		"COUNTRY" : "Serbia",
		"COUNTRY_CODE" : "SRB"
	},
	{
		"COUNTRY" : "Seychelles",
		"COUNTRY_CODE" : "SYC"
	},
	{
		"COUNTRY" : "Sierra Leone",
		"COUNTRY_CODE" : "SLE"
	},
	{
		"COUNTRY" : "Singapore",
		"COUNTRY_CODE" : "SGP"
	},
	{
		"COUNTRY" : "Slovakia",
		"COUNTRY_CODE" : "SVK"
	},
	{
		"COUNTRY" : "Vietnam",
		"COUNTRY_CODE" : "VNM"
	},
	{
		"COUNTRY" : "Slovenia",
		"COUNTRY_CODE" : "SVN"
	},
	{
		"COUNTRY" : "Somalia",
		"COUNTRY_CODE" : "SOM"
	},
	{
		"COUNTRY" : "South Africa",
		"COUNTRY_CODE" : "ZAF"
	},
	{
		"COUNTRY" : "Zimbabwe",
		"COUNTRY_CODE" : "ZWE"
	},
	{
		"COUNTRY" : "Spain",
		"COUNTRY_CODE" : "ESP"
	},
	{
		"COUNTRY" : "Sudan",
		"COUNTRY_CODE" : "SDN"
	},
	{
		"COUNTRY" : "Sweden",
		"COUNTRY_CODE" : "SWE"
	},
	{
		"COUNTRY" : "Switzerland",
		"COUNTRY_CODE" : "CHE"
	},
	{
		"COUNTRY" : "Syria",
		"COUNTRY_CODE" : "SYR"
	},
	{
		"COUNTRY" : "Tajikistan",
		"COUNTRY_CODE" : "TJK"
	},
	{
		"COUNTRY" : "Thailand",
		"COUNTRY_CODE" : "THA"
	},
	{
		"COUNTRY" : "Togo",
		"COUNTRY_CODE" : "TGO"
	},
	{
		"COUNTRY" : "Trinidad &Tobago",
		"COUNTRY_CODE" : "TTO"
	},
	{
		"COUNTRY" : "United Arab Emirates",
		"COUNTRY_CODE" : "ARE"
	},
	{
		"COUNTRY" : "Tunisia",
		"COUNTRY_CODE" : "TUN"
	},
	{
		"COUNTRY" : "Turkey",
		"COUNTRY_CODE" : "TUR"
	},
	{
		"COUNTRY" : "Turkmenistan",
		"COUNTRY_CODE" : "TKM"
	},
	{
		"COUNTRY" : "Uganda",
		"COUNTRY_CODE" : "UGA"
	},
	{
		"COUNTRY" : "Ukraine",
		"COUNTRY_CODE" : "UKR"
	},
	{
		"COUNTRY" : "Rep of Macedonia",
		"COUNTRY_CODE" : "MKD"
	},
	{
		"COUNTRY" : "Egypt",
		"COUNTRY_CODE" : "EGY"
	},
	{
		"COUNTRY" : "UK",
		"COUNTRY_CODE" : "GBR"
	},
	{
		"COUNTRY" : "Tanzania",
		"COUNTRY_CODE" : "TZA"
	},
	{
		"COUNTRY" : "USA",
		"COUNTRY_CODE" : "USA"
	},
	{
		"COUNTRY" : "Burkina Faso",
		"COUNTRY_CODE" : "BFA"
	},
	{
		"COUNTRY" : "Uruguay",
		"COUNTRY_CODE" : "URY"
	},
	{
		"COUNTRY" : "Uzbekistan",
		"COUNTRY_CODE" : "UZB"
	},
	{
		"COUNTRY" : "Venezuela",
		"COUNTRY_CODE" : "VEN"
	},
	{
		"COUNTRY" : "Zambia",
		"COUNTRY_CODE" : "ZMB"
	}
]
