﻿Country,Launch,Launch Score,Commercial Values,Commercial Values Score
Albania,,,,
Algeria,,,,
Angola,,,,
Argentina,,,,
Armenia,,,,
Australia,,,,
Austria,,,,
Azerbaidjan,,,,
Bahrain,,,,
Bangladesh,,,,
Belarus,,,,
Belgium,,,,
Benin,,,,
Bermuda,,,,
Bolivia,,,,
Bosnia & Herzegovina,,,,
Botswana,,,,
Brazil,,,,
Bulgaria,,,,
Burkina Faso,,,,
Burundi,,,,
Cameroon,,,,
Canada,,,,
Central African Republic,,,,
Chile,,,,
China,,,,
Colombia,,,,
Congo,,,,
Costa Rica,,,,
Croatia,,,,
Cuba,,,,
Cyprus,,,,
Czech Republic,,,,
Denmark,,,,
Djibouti Republic,,,,
Dominican Republic,,,,
Ecuador,,,,
Egypt,,,,
El Salvador,,,,
Estonia,,,,
Ethiopia,,,,
Finland,,,,
France,,,,
Gabon,,,,
Gambia,,,,
Georgia,,,,
Germany,,,,
Ghana,,,,
Greece,,,,
Guatemala,,,,
Guinea,,,,
Guyana & Suriname,,,,
Haiti,,,,
Honduras,,,,
"Hong Kong, region of China",,,,
Hungary,,,,
Iceland,,,,
India,,,,
Indonesia,,,,
Irak,,,,
Iran Islamic Republic,,,,
Ireland,,,,
Israel,,,,
Italy,,,,
Ivory Coast,,,,
Jamaica,,,,
Japan,,,,
Jordan,,,,
Kazakhstan,,,,
Kenya,,,,
Kingdom of Saudi Arabia,,,,
Kirgizstan,,,,
Kuwait,,,,
Latvia,,,,
Lebanon,,,,
Liberia,,,,
Lithuania,,,,
Luxemburg,,,,
Madagascar,,,,
Malawi,,,,
Malaysia,,,,
Mali,,,,
Malta,,,,
Mauritania,,,,
Mauritius,,,,
Mexico,,,,
Moldova,,,,
Montenegro,,,,
Morocco,,,,
Mozambique,,,,
Namibia,,,,
Nepal,,,,
Netherlands,,,,
New Zealand,,,,
Nicaragua,,,,
Niger,,,,
Nigeria,,,,
Norway,,,,
Oman,,,,
Pakistan,,,,
Panama,,,,
Paraguay,,,,
Peru,,,,
Philippines,,,,
Poland,,,,
Portugal,,,,
Puerto Rico,,,,
Qatar,,,,
Rep of Macedonia,,,,
Romania,,,,
Russia,,,,
Rwanda,,,,
Senegal,,,,
Serbia,,,,
Seychelles,,,,
Sierra Leone,,,,
Singapore,,,,
Slovakia,,,,
Slovenia,,,,
Somalia,,,,
South Africa,,,,
South Korea,,,,
Spain,,,,
Sri Lanka,,,,
Sudan,,,,
Sweden,,,,
Switzerland,,,,
Syria,,,,
"Taiwan, region of China",,,,
Tajikistan,,,,
Tanzania,,,,
Tchad,,,,
Thailand,,,,
Togo,,,,
Trinidad &Tobago,,,,
Tunisia,,,,
Turkey,,,,
Turkmenistan,,,,
UK,,,,
USA,,,,
Uganda,,,,
Ukraine,,,,
United Arab Emirates,,,,
Uruguay,,,,
Uzbekistan,,,,
Venezuela,,,,
Vietnam,,,,
West Indies,,,,
Zambia,,,,
Zimbabwe,,,,